{
  "project_info": {
    "project_number": "1066251335783",
    "firebase_url": "https://wortix-all.firebaseio.com",
    "project_id": "wortix-all",
    "storage_bucket": "wortix-all.appspot.com"
  },
  "client": [
    {
      "client_info": {
        "mobilesdk_app_id": "1:1066251335783:android:6f03912cfd4e5358",
        "android_client_info": {
          "package_name": "com.wortix.WortixAPP"
        }
      },
      "oauth_client": [
        {
          "client_id": "1066251335783-7k2ijkc3h5mis1on4d366vf5b1cj3pl9.apps.googleusercontent.com",
          "client_type": 3
        }
      ],
      "api_key": [
        {
          "current_key": "AIzaSyDSGdkya163WC8Y7m2E15K2BrKUQKCa2rw"
        }
      ],
      "services": {
        "appinvite_service": {
          "other_platform_oauth_client": [
            {
              "client_id": "1066251335783-7k2ijkc3h5mis1on4d366vf5b1cj3pl9.apps.googleusercontent.com",
              "client_type": 3
            }
          ]
        }
      }
    }
  ],
  "configuration_version": "1"
}