<svg xmlns="http://www.w3.org/2000/svg" width="86.104" height="33.041" viewBox="0 0 86.104 33.041">
  <g id="Grupo_2361" data-name="Grupo 2361" transform="translate(-109.29 -195.98)">
    <path id="Trazado_2078" data-name="Trazado 2078" d="M139.178,195.98c-7.779,0-14.188,6.37-15.072,14.578L122.289,223.2l-1.887-6.323h-3.58l-1.9,6.372-1.5-13.9h-4.13l2.044,18.95h5.6l1.675-5.613,1.675,5.613h5.4l.936-6.508a14.87,14.87,0,0,0,12.557,7.237c8.383,0,15.178-7.4,15.178-16.521S147.561,195.98,139.178,195.98Zm.212,28.824c-5.477,0-9.917-5.338-9.917-11.922s4.44-11.921,9.917-11.921,9.917,5.337,9.917,11.921S144.867,224.8,139.39,224.8Z" transform="translate(0)" fill="#8cca19"/>
    <g id="Grupo_2061" data-name="Grupo 2061" transform="translate(150.94 203.517)">
      <rect id="Rectángulo_1755" data-name="Rectángulo 1755" width="3.152" height="3.216" transform="translate(25.714 0)" fill="#333"/>
      <path id="Trazado_2079" data-name="Trazado 2079" d="M431.116,252.56h-4.43l-4.856,6.389L416.8,252.56H404.55v-6.389l-3.152,1.618v4.771h-3.492s-1.96-1.723-5.452-.563c0,0-1.7,1.516-2.376,2.323V252h-3.417v18.95h3.417v-13.02a25.531,25.531,0,0,1,2.546-2.39s4.515-2.381,4.77,2.39h2.811v-2.39H401.4l.115,10.155q0,5.255,4.712,5.255a5.538,5.538,0,0,0,2.68-.561v-2.452a3.02,3.02,0,0,1-1.874.6,2.446,2.446,0,0,1-2.032-.771,4.188,4.188,0,0,1-.613-2.575l.079-9.647h7.91v15.409h4l5.537-7.142,5.537,7.142h3.663l-7.241-9.475Zm-15.589,14.056V255.537l4.515,5.539Z" transform="translate(-386.661 -246.171)" fill="#333"/>
    </g>
  </g>
</svg>
